…
To request multiple series as one tibble

``` r
get_n_series_table(
  list('LNS14000001', 'LNS14000002'), NA, start_year = 2005, end_year=2006
  )
# # A tibble: 24 x 4
#     year period LNS14000001 LNS14000002
#    <int> <chr>  <chr>       <chr>      
#  1  2006 M12    4.5         4.4        
#  2  2006 M11    4.5         4.5        
#  3  2006 M10    4.4         4.4        
#  4  2006 M09    4.4         4.7        
#  5  2006 M08    4.7         4.6        
#  6  2006 M07    4.7         4.7        
#  7  2006 M06    4.6         4.6        
#  8  2006 M05    4.7         4.5        
#  9  2006 M04    4.7         4.7        
# 10  2006 M03    4.7         4.7        
# # ... with 14 more rows

get_n_series_table(
  list(uer.men ='LNS14000001', uer.women = 'LNS14000002'),
  NA,
  start_year = 2005, end_year=2006, tidy=TRUE
)

# # A tibble: 24 x 4
#     year month uer.men uer.women
#    <int> <int> <chr>   <chr>    
#  1  2005     1 5.4     5.1      
#  2  2005     2 5.5     5.3      
#  3  2005     3 5.3     5.1      
#  4  2005     4 5.1     5.2      
#  5  2005     5 5.0     5.2      
#  6  2005     6 5.0     5.1      
#  7  2005     7 4.9     5.1      
#  8  2005     8 4.9     4.9      
#  9  2005     9 5.0     5.1      
# 10  2005    10 4.8     5.1      
# # ... with 14 more rows
```
